[
  "Agile Rollen (Scrum Master, Product Owner)",
  "Business Analyse",
  "IT-Leadership",
  "Innovationsmanagement",
  "Projektmanagement",
  "Requirements-Engineering",
  "Software Engineering",
  "Solution Design",
  "Test Job",
  "Unternehmensentwicklung"
]